\relax 
\bibstyle{abbrv}
\select@language{english}
\@writefile{toc}{\select@language{english}}
\@writefile{lof}{\select@language{english}}
\@writefile{lot}{\select@language{english}}
\citation{bigdataproblem}
\citation{SAS}
\citation{Hadoop}
\citation{Flink}
\citation{Spark}
\citation{HadoopAlternative}
\citation{Flink}
\@writefile{toc}{\contentsline {section}{\numberline {1}Introduction}{1}}
\citation{Mars}
\citation{HeteroSpark}
\citation{ark}
\citation{quadro}
\citation{MapReduce}
\citation{mikkel}
\citation{mikkel}
\@writefile{toc}{\contentsline {section}{\numberline {2}Technical Background}{3}}
\@writefile{toc}{\contentsline {subsection}{\numberline {2.1}Big Data Frameworks}{3}}
\newlabel{sec:bigdata}{{2.1}{3}}
\@writefile{toc}{\contentsline {subsubsection}{\numberline {2.1.1}MapReduce}{3}}
\@writefile{lof}{\contentsline {figure}{\numberline {1}{\ignorespaces The MapReduce programming model \cite  {mikkel}\relax }}{3}}
\newlabel{fig:mapreduce}{{1}{3}}
\citation{yarn}
\citation{Spark}
\citation{mapvsspark}
\citation{dat9}
\citation{terasortsparkflink}
\citation{dat9}
\citation{terasortsparkflink}
\@writefile{toc}{\contentsline {subsubsection}{\numberline {2.1.2}Apache Spark}{4}}
\newlabel{sec:spark}{{2.1.2}{4}}
\citation{infosparkvsflink}
\citation{dat9}
\citation{terasortsparkflink}
\citation{dat9}
\citation{terasortsparkflink}
\@writefile{lof}{\contentsline {figure}{\numberline {2}{\ignorespaces Overview of the terasorting process with Spark\cite  {dat9} \cite  {terasortsparkflink}\relax }}{5}}
\providecommand*\caption@xref[2]{\@setref\relax\@undefined{#1}}
\newlabel{fig:terasortsparkresult}{{2}{5}}
\@writefile{toc}{\contentsline {subsection}{\numberline {2.2}Apache Flink}{5}}
\newlabel{sec:flink}{{2.2}{5}}
\@writefile{lof}{\contentsline {figure}{\numberline {3}{\ignorespaces Overview of the TeraSorting process with Flink\cite  {dat9} \cite  {terasortsparkflink}\relax }}{5}}
\newlabel{fig:terasortflinkresult}{{3}{5}}
\@writefile{toc}{\contentsline {subsection}{\numberline {2.3}GPU/CPU Comparison}{5}}
\newlabel{sec:cpugpu}{{2.3}{5}}
\citation{SIMD}
\citation{introCuda}
\citation{cpugpuimage}
\citation{cpugpuimage}
\citation{sutterlarus}
\citation{MapReduceMulti}
\citation{statModel}
\@writefile{lof}{\contentsline {figure}{\numberline {4}{\ignorespaces CPU \& GPU architecture simplified\cite  {cpugpuimage}\relax }}{6}}
\newlabel{fig:CPUGPUarch}{{4}{6}}
\@writefile{toc}{\contentsline {subsubsection}{\numberline {2.3.1}Scalable Algorithms}{6}}
\newlabel{sec:extendedgradient}{{2.3.1}{6}}
\newlabel{eq:gpugradient}{{1}{6}}
\citation{MapReduceMulti}
\citation{statModel}
\citation{CUDA}
\citation{OpenCL}
\citation{openclarchitecture}
\citation{openclarchitecture}
\@writefile{toc}{\contentsline {subsubsection}{\numberline {2.3.2}Existing GPU Frameworks}{7}}
\newlabel{sec:existingframeworks}{{2.3.2}{7}}
\citation{openclarchitecture}
\citation{openclarchitecture}
\citation{criteo}
\@writefile{lof}{\contentsline {figure}{\numberline {5}{\ignorespaces Host of process in OpenCL\cite  {openclarchitecture}\relax }}{8}}
\newlabel{fig:openclhostprocess}{{5}{8}}
\@writefile{lof}{\contentsline {figure}{\numberline {6}{\ignorespaces Architecture of OpenCL\cite  {openclarchitecture}\relax }}{8}}
\newlabel{fig:openclarchitecture}{{6}{8}}
\@writefile{toc}{\contentsline {subsection}{\numberline {2.4}Initial Test}{8}}
\newlabel{sec:initialtests}{{2.4}{8}}
\citation{deepLearning}
\citation{CNN}
\citation{Mars}
\citation{marsvshadoop}
\citation{marsvshadoop}
\citation{HeteroSpark}
\citation{HeteroSpark}
\citation{HeteroSpark}
\@writefile{lof}{\contentsline {figure}{\numberline {7}{\ignorespaces Logistic Regression CPU/GPU, 100.000 samples, 100 iterations\relax }}{9}}
\newlabel{fig:initialtest}{{7}{9}}
\@writefile{toc}{\contentsline {section}{\numberline {3}Related Work}{9}}
\newlabel{sec:related}{{3}{9}}
\@writefile{toc}{\contentsline {subsection}{\numberline {3.1}GPU and Big Data Machine Learning}{9}}
\newlabel{sec:gpumachinelearning}{{3.1}{9}}
\@writefile{toc}{\contentsline {subsection}{\numberline {3.2}HeteroSpark}{9}}
\newlabel{sec:heteroSpark}{{3.2}{9}}
\citation{RMI}
\citation{HeteroSpark}
\citation{HeteroSpark}
\citation{HeteroSpark}
\citation{HeteroSpark}
\@writefile{lof}{\contentsline {figure}{\numberline {8}{\ignorespaces Performance of HeteroSpark v.s. Spark\cite  {HeteroSpark}\relax }}{10}}
\newlabel{fig:heterospark}{{8}{10}}
\@writefile{lof}{\contentsline {figure}{\numberline {9}{\ignorespaces HeteroSpark CPU-GPU Communication\cite  {HeteroSpark}\relax }}{10}}
\newlabel{fig:SparkCPUGPUcom}{{9}{10}}
\@writefile{lof}{\contentsline {figure}{\numberline {10}{\ignorespaces Glue logic of HeteroSpark \cite  {HeteroSpark}\relax }}{11}}
\newlabel{fig:heteroglue}{{10}{11}}
\@writefile{toc}{\contentsline {section}{\numberline {4}Framework: Architectural Overview}{11}}
\newlabel{sec:concept}{{4}{11}}
\@writefile{lof}{\contentsline {figure}{\numberline {11}{\ignorespaces GPU Framework\relax }}{11}}
\newlabel{fig:propFigure}{{11}{11}}
\@writefile{toc}{\contentsline {section}{\numberline {5}Proposed Framework}{12}}
\newlabel{sec:proposed}{{5}{12}}
\@writefile{lof}{\contentsline {figure}{\numberline {12}{\ignorespaces Architecture overview\relax }}{13}}
\newlabel{fig:architecture}{{12}{13}}
\citation{LWJGL}
\citation{JOCL}
\@writefile{toc}{\contentsline {section}{\numberline {6}Framework: Implementation}{14}}
\@writefile{toc}{\contentsline {subsection}{\numberline {6.1}Existing Frameworks}{14}}
\newlabel{sec:implexisting}{{6.1}{14}}
\@writefile{toc}{\contentsline {subsection}{\numberline {6.2}Framework: User API}{14}}
\newlabel{sec:userapi}{{6.2}{14}}
\@writefile{lof}{\contentsline {figure}{\numberline {13}{\ignorespaces Creating an OpenCLObject\relax }}{14}}
\newlabel{fig:openCLObject}{{13}{14}}
\@writefile{toc}{\contentsline {subsection}{\numberline {6.3}Framework: Back end}{15}}
\newlabel{sec:backend}{{6.3}{15}}
\@writefile{lof}{\contentsline {figure}{\numberline {14}{\ignorespaces Memory allocation of a kernel using logistic regression\relax }}{16}}
\newlabel{fig:memoryAllocation}{{14}{16}}
\@writefile{lof}{\contentsline {figure}{\numberline {15}{\ignorespaces Settings the arguments and launching kernels\relax }}{16}}
\newlabel{fig:kernelLaunch}{{15}{16}}
\citation{criteo}
\citation{winedata}
\@writefile{toc}{\contentsline {subsection}{\numberline {6.4}Standard Library}{17}}
\newlabel{sec:stdlib}{{6.4}{17}}
\@writefile{toc}{\contentsline {section}{\numberline {7}Experiments}{17}}
\newlabel{sec:experiments}{{7}{17}}
\@writefile{toc}{\contentsline {subsection}{\numberline {7.1}Experimental Setup}{17}}
\newlabel{sec:setup}{{7.1}{17}}
\@writefile{toc}{\contentsline {subsection}{\numberline {7.2}Experimental Results}{18}}
\newlabel{sec:results}{{7.2}{18}}
\@writefile{lof}{\contentsline {figure}{\numberline {16}{\ignorespaces Logistic Regression CPU/GPU, 1.000.000 samples, 100 iterations\relax }}{18}}
\newlabel{fig:logistictest1}{{16}{18}}
\@writefile{lof}{\contentsline {figure}{\numberline {17}{\ignorespaces Logistic Regression CPU/GPU, 10.000 samples, 10.000 iterations\relax }}{18}}
\newlabel{fig:logistictest2}{{17}{18}}
\citation{HeteroSpark}
\citation{HeteroSpark}
\@writefile{lof}{\contentsline {figure}{\numberline {18}{\ignorespaces K-Means CPU/GPU, 4968 samples, 400 iterations, 50 centroids\relax }}{19}}
\newlabel{fig:kmeanstest}{{18}{19}}
\@writefile{toc}{\contentsline {subsection}{\numberline {7.3}Flink Test Approximation}{19}}
\newlabel{sec:flinkhypo}{{7.3}{19}}
\@writefile{lof}{\contentsline {figure}{\numberline {20}{\ignorespaces Logistic Regression on Flink CPU/GPU, 1.000.000 samples, 100 iterations\relax }}{20}}
\newlabel{fig:logistictest3}{{20}{20}}
\@writefile{lof}{\contentsline {figure}{\numberline {21}{\ignorespaces Logistic Regression on Flink CPU/GPU, 1.000.000 samples, 100 iterations\relax }}{20}}
\newlabel{fig:logistictest4}{{21}{20}}
\@writefile{lof}{\contentsline {figure}{\numberline {19}{\ignorespaces Performance of HeteroSpark v.s. Spark\cite  {HeteroSpark}\relax }}{20}}
\newlabel{fig:heterospark2}{{19}{20}}
\@writefile{toc}{\contentsline {section}{\numberline {8}Conclusion}{20}}
\bibdata{main}
\bibcite{statModel}{1}
\bibcite{HadoopAlternative}{2}
\bibcite{winedata}{3}
\@writefile{toc}{\contentsline {subsection}{\numberline {8.1}Future Work}{21}}
\bibcite{criteo}{4}
\bibcite{aibook}{5}
\bibcite{mapvsspark}{6}
\bibcite{MapReduce}{7}
\bibcite{cpugpuimage}{8}
\bibcite{Mars}{9}
\bibcite{MapReduceMulti}{10}
\bibcite{CNN}{11}
\bibcite{openclarchitecture}{12}
\bibcite{Flink}{13}
\bibcite{OpenCL}{14}
\bibcite{Hadoop}{15}
\bibcite{marsvshadoop}{16}
\bibcite{SIMD}{17}
\bibcite{ark}{18}
\bibcite{deepLearning}{19}
\bibcite{JOCL}{20}
\bibcite{terasortsparkflink}{21}
\bibcite{LWJGL}{22}
\bibcite{mikkel}{23}
\bibcite{bigdataproblem}{24}
\bibcite{andrewcost}{25}
\bibcite{andrewhypothesis}{26}
\bibcite{dat9}{27}
\bibcite{introCuda}{28}
\bibcite{CUDA}{29}
\bibcite{quadro}{30}
\bibcite{RMI}{31}
\bibcite{HeteroSpark}{32}
\bibcite{infosparkvsflink}{33}
\bibcite{yarn}{34}
\bibcite{SAS}{35}
\bibcite{Spark}{36}
\bibcite{sutterlarus}{37}
\citation{dat9}
\@writefile{toc}{\contentsline {section}{\numberline {A}Machine Learning Techniques}{24}}
\newlabel{app:techniques}{{A}{24}}
\@writefile{toc}{\contentsline {subsection}{\numberline {A.1}Gradient Descent}{24}}
\newlabel{app:gradientdesent}{{A.1}{24}}
\newlabel{eq:objective}{{2}{24}}
\newlabel{eq:gradientdescent}{{3}{24}}
\@writefile{toc}{\contentsline {subsection}{\numberline {A.2}Logistic Regression}{24}}
\newlabel{app:logistic}{{A.2}{24}}
\@writefile{lof}{\contentsline {figure}{\numberline {22}{\ignorespaces Logistic regression example with the hypothesis being the line dividing the data\relax }}{24}}
\newlabel{fig:exlogis}{{22}{24}}
\citation{andrewhypothesis}
\newlabel{eq:hypo}{{4}{25}}
\@writefile{lof}{\contentsline {figure}{\numberline {23}{\ignorespaces Plot of the logistic function\relax }}{25}}
\newlabel{fig:logfunc}{{23}{25}}
\citation{andrewcost}
\citation{aibook}
\@writefile{lof}{\contentsline {figure}{\numberline {24}{\ignorespaces Logistic regression example with a new added point\relax }}{26}}
\newlabel{fig:exlogis2}{{24}{26}}
\@writefile{lof}{\contentsline {figure}{\numberline {25}{\ignorespaces Logistic regression example with a new hypothesis\relax }}{26}}
\newlabel{fig:exlogis3}{{25}{26}}
\newlabel{eq:cost}{{5}{26}}
\@writefile{lof}{\contentsline {figure}{\numberline {26}{\ignorespaces Plot of $- \text  {log}(h_\theta (x))$\relax }}{27}}
\newlabel{fig:yeq1}{{26}{27}}
\@writefile{lof}{\contentsline {figure}{\numberline {27}{\ignorespaces Plot of $- \text  {log}(h_\theta (1-x))$\relax }}{27}}
\newlabel{fig:yeq0}{{27}{27}}
\@writefile{toc}{\contentsline {subsection}{\numberline {A.3}K-Means}{27}}
\newlabel{app:kmeans}{{A.3}{27}}
\citation{aibook}
\newlabel{eq:kmeansse}{{6}{28}}
\@writefile{toc}{\contentsline {section}{\numberline {B}Framework Code Examples}{28}}
\newlabel{app:codeexamples}{{B}{28}}
\@writefile{toc}{\contentsline {section}{\numberline {C}Standard Library Kernels}{30}}
\newlabel{app:stdlib}{{C}{30}}
\@writefile{toc}{\contentsline {subsection}{\numberline {C.1}Logistic Regression}{30}}
\@writefile{toc}{\contentsline {subsection}{\numberline {C.2}K-Means}{32}}
\@writefile{toc}{\contentsline {subsection}{\numberline {C.3}Source Code}{33}}
\newlabel{LastPage}{{}{33}}
\xdef\lastpage@lastpage{33}
\gdef\lastpage@lastpageHy{}
\global\@altsecnumformattrue
