\relax 
\providecommand\hyper@newdestlabel[2]{}
\providecommand\HyperFirstAtBeginDocument{\AtBeginDocument}
\HyperFirstAtBeginDocument{\ifx\hyper@anchor\@undefined
\global\let\oldcontentsline\contentsline
\gdef\contentsline#1#2#3#4{\oldcontentsline{#1}{#2}{#3}}
\global\let\oldnewlabel\newlabel
\gdef\newlabel#1#2{\newlabelxx{#1}#2}
\gdef\newlabelxx#1#2#3#4#5#6{\oldnewlabel{#1}{{#2}{#3}}}
\AtEndDocument{\ifx\hyper@anchor\@undefined
\let\contentsline\oldcontentsline
\let\newlabel\oldnewlabel
\fi}
\fi}
\global\let\hyper@last\relax 
\gdef\HyperFirstAtBeginDocument#1{#1}
\providecommand\HyField@AuxAddToFields[1]{}
\providecommand\HyField@AuxAddToCoFields[2]{}
\@writefile{toc}{\beamer@endinputifotherversion {3.36pt}}
\@writefile{nav}{\beamer@endinputifotherversion {3.36pt}}
\@writefile{nav}{\headcommand {\slideentry {0}{0}{1}{1/1}{}{0}}}
\@writefile{nav}{\headcommand {\beamer@framepages {1}{1}}}
\@writefile{nav}{\headcommand {\slideentry {0}{0}{2}{2/2}{}{0}}}
\@writefile{nav}{\headcommand {\beamer@framepages {2}{2}}}
\@writefile{toc}{\beamer@sectionintoc {1}{Motivation}{3}{0}{1}}
\@writefile{nav}{\headcommand {\sectionentry {1}{Motivation}{3}{Motivation}{0}}}
\@writefile{nav}{\headcommand {\beamer@sectionpages {1}{2}}}
\@writefile{nav}{\headcommand {\beamer@subsectionpages {1}{2}}}
\@writefile{nav}{\headcommand {\slideentry {1}{0}{1}{3/3}{}{0}}}
\@writefile{nav}{\headcommand {\beamer@framepages {3}{3}}}
\@writefile{nav}{\headcommand {\slideentry {1}{0}{2}{4/4}{}{0}}}
\@writefile{nav}{\headcommand {\beamer@framepages {4}{4}}}
\@writefile{toc}{\beamer@sectionintoc {2}{Technical Background}{5}{0}{2}}
\@writefile{nav}{\headcommand {\sectionentry {2}{Technical Background}{5}{Technical Background}{0}}}
\@writefile{nav}{\headcommand {\beamer@sectionpages {3}{4}}}
\@writefile{nav}{\headcommand {\beamer@subsectionpages {3}{4}}}
\@writefile{nav}{\headcommand {\slideentry {2}{0}{1}{5/5}{}{0}}}
\@writefile{nav}{\headcommand {\beamer@framepages {5}{5}}}
\@writefile{toc}{\beamer@subsectionintoc {2}{1}{Big Data Frameworks}{6}{0}{2}}
\@writefile{nav}{\headcommand {\beamer@subsectionentry {0}{2}{1}{6}{Big Data Frameworks}}\headcommand {\beamer@subsectionpages {5}{5}}}
\newlabel{fig:mapreduce}{{1}{6}{Big Data Frameworks}{Doc-Start}{}}
\@writefile{snm}{\beamer@slide {fig:mapreduce}{6}}
\@writefile{nav}{\headcommand {\slideentry {2}{1}{1}{6/6}{Big Data Frameworks}{0}}}
\@writefile{nav}{\headcommand {\beamer@framepages {6}{6}}}
\@writefile{toc}{\beamer@subsectionintoc {2}{2}{CPU/GPU Comparison}{7}{0}{2}}
\@writefile{nav}{\headcommand {\beamer@subsectionentry {0}{2}{2}{7}{CPU/GPU Comparison}}\headcommand {\beamer@subsectionpages {6}{6}}}
\newlabel{fig:CPUGPUarch}{{2}{7}{CPU/GPU Comparison}{Doc-Start}{}}
\@writefile{snm}{\beamer@slide {fig:CPUGPUarch}{7}}
\@writefile{nav}{\headcommand {\slideentry {2}{2}{1}{7/7}{CPU/GPU Comparison}{0}}}
\@writefile{nav}{\headcommand {\beamer@framepages {7}{7}}}
\@writefile{nav}{\headcommand {\slideentry {2}{2}{2}{8/8}{CPU/GPU Comparison}{0}}}
\@writefile{nav}{\headcommand {\beamer@framepages {8}{8}}}
\@writefile{toc}{\beamer@subsectionintoc {2}{3}{Machine Learning}{9}{0}{2}}
\@writefile{nav}{\headcommand {\beamer@subsectionentry {0}{2}{3}{9}{Machine Learning}}\headcommand {\beamer@subsectionpages {7}{8}}}
\@writefile{nav}{\headcommand {\slideentry {2}{3}{1}{9/9}{Machine Learning}{0}}}
\@writefile{nav}{\headcommand {\beamer@framepages {9}{9}}}
\@writefile{nav}{\headcommand {\slideentry {2}{3}{2}{10/10}{Machine Learning}{0}}}
\@writefile{nav}{\headcommand {\beamer@framepages {10}{10}}}
\@writefile{nav}{\headcommand {\slideentry {2}{3}{3}{11/11}{Machine Learning}{0}}}
\@writefile{nav}{\headcommand {\beamer@framepages {11}{11}}}
\@writefile{toc}{\beamer@sectionintoc {3}{Contribution}{12}{0}{3}}
\@writefile{nav}{\headcommand {\sectionentry {3}{Contribution}{12}{Contribution}{0}}}
\@writefile{nav}{\headcommand {\beamer@sectionpages {5}{11}}}
\@writefile{nav}{\headcommand {\beamer@subsectionpages {9}{11}}}
\@writefile{nav}{\headcommand {\slideentry {3}{0}{1}{12/12}{}{0}}}
\@writefile{nav}{\headcommand {\beamer@framepages {12}{12}}}
\@writefile{nav}{\headcommand {\slideentry {3}{0}{2}{13/13}{}{0}}}
\@writefile{nav}{\headcommand {\beamer@framepages {13}{13}}}
\@writefile{toc}{\beamer@subsectionintoc {3}{1}{Model}{14}{0}{3}}
\@writefile{nav}{\headcommand {\beamer@subsectionentry {0}{3}{1}{14}{Model}}\headcommand {\beamer@subsectionpages {12}{13}}}
\newlabel{fig:propFigure}{{3}{14}{Model}{Doc-Start}{}}
\@writefile{snm}{\beamer@slide {fig:propFigure}{14}}
\@writefile{nav}{\headcommand {\slideentry {3}{1}{1}{14/14}{Model}{0}}}
\@writefile{nav}{\headcommand {\beamer@framepages {14}{14}}}
\newlabel{fig:architecture}{{4}{15}{Model}{Doc-Start}{}}
\@writefile{snm}{\beamer@slide {fig:architecture}{15}}
\@writefile{nav}{\headcommand {\slideentry {3}{1}{2}{15/15}{Model}{0}}}
\@writefile{nav}{\headcommand {\beamer@framepages {15}{15}}}
\@writefile{toc}{\beamer@subsectionintoc {3}{2}{User API}{16}{0}{3}}
\@writefile{nav}{\headcommand {\beamer@subsectionentry {0}{3}{2}{16}{User API}}\headcommand {\beamer@subsectionpages {14}{15}}}
\@writefile{nav}{\headcommand {\slideentry {3}{2}{1}{16/16}{User API}{0}}}
\@writefile{nav}{\headcommand {\beamer@framepages {16}{16}}}
\@writefile{nav}{\headcommand {\slideentry {3}{2}{2}{17/17}{User API}{0}}}
\@writefile{nav}{\headcommand {\beamer@framepages {17}{17}}}
\@writefile{toc}{\beamer@subsectionintoc {3}{3}{Back End}{18}{0}{3}}
\@writefile{nav}{\headcommand {\beamer@subsectionentry {0}{3}{3}{18}{Back End}}\headcommand {\beamer@subsectionpages {16}{17}}}
\@writefile{nav}{\headcommand {\slideentry {3}{3}{1}{18/18}{Back End}{0}}}
\@writefile{nav}{\headcommand {\beamer@framepages {18}{18}}}
\@writefile{nav}{\headcommand {\slideentry {3}{3}{2}{19/19}{Back End}{0}}}
\@writefile{nav}{\headcommand {\beamer@framepages {19}{19}}}
\@writefile{nav}{\headcommand {\slideentry {3}{3}{3}{20/20}{Back End}{0}}}
\@writefile{nav}{\headcommand {\beamer@framepages {20}{20}}}
\@writefile{nav}{\headcommand {\slideentry {3}{3}{4}{21/21}{Back End}{0}}}
\@writefile{nav}{\headcommand {\beamer@framepages {21}{21}}}
\@writefile{nav}{\headcommand {\slideentry {3}{3}{5}{22/22}{Back End}{0}}}
\@writefile{nav}{\headcommand {\beamer@framepages {22}{22}}}
\@writefile{toc}{\beamer@sectionintoc {4}{Future Work}{23}{0}{4}}
\@writefile{nav}{\headcommand {\sectionentry {4}{Future Work}{23}{Future Work}{0}}}
\@writefile{nav}{\headcommand {\beamer@sectionpages {12}{22}}}
\@writefile{nav}{\headcommand {\beamer@subsectionpages {18}{22}}}
\@writefile{nav}{\headcommand {\slideentry {4}{0}{1}{23/23}{}{0}}}
\@writefile{nav}{\headcommand {\beamer@framepages {23}{23}}}
\@writefile{nav}{\headcommand {\slideentry {4}{0}{2}{24/24}{}{0}}}
\@writefile{nav}{\headcommand {\beamer@framepages {24}{24}}}
\@writefile{toc}{\beamer@sectionintoc {5}{Update to Current Model}{25}{0}{5}}
\@writefile{nav}{\headcommand {\sectionentry {5}{Update to Current Model}{25}{Update to Current Model}{0}}}
\@writefile{nav}{\headcommand {\beamer@sectionpages {23}{24}}}
\@writefile{nav}{\headcommand {\beamer@subsectionpages {23}{24}}}
\@writefile{nav}{\headcommand {\slideentry {5}{0}{1}{25/25}{}{0}}}
\@writefile{nav}{\headcommand {\beamer@framepages {25}{25}}}
\@writefile{nav}{\headcommand {\slideentry {5}{0}{2}{26/26}{}{0}}}
\@writefile{nav}{\headcommand {\beamer@framepages {26}{26}}}
\newlabel{fig:propFigure}{{5}{27}{Update to Current Model}{Doc-Start}{}}
\@writefile{snm}{\beamer@slide {fig:propFigure}{27}}
\@writefile{nav}{\headcommand {\slideentry {5}{0}{3}{27/27}{}{0}}}
\@writefile{nav}{\headcommand {\beamer@framepages {27}{27}}}
\@writefile{toc}{\beamer@subsectionintoc {5}{1}{Addition to Standard Library}{28}{0}{5}}
\@writefile{nav}{\headcommand {\beamer@subsectionentry {0}{5}{1}{28}{Addition to Standard Library}}\headcommand {\beamer@subsectionpages {25}{27}}}
\@writefile{nav}{\headcommand {\slideentry {5}{1}{1}{28/28}{Addition to Standard Library}{0}}}
\@writefile{nav}{\headcommand {\beamer@framepages {28}{28}}}
\@writefile{toc}{\beamer@sectionintoc {6}{New Test Results}{29}{0}{6}}
\@writefile{nav}{\headcommand {\sectionentry {6}{New Test Results}{29}{New Test Results}{0}}}
\@writefile{nav}{\headcommand {\beamer@sectionpages {25}{28}}}
\@writefile{nav}{\headcommand {\beamer@subsectionpages {28}{28}}}
\@writefile{nav}{\headcommand {\slideentry {6}{0}{1}{29/29}{}{0}}}
\@writefile{nav}{\headcommand {\beamer@framepages {29}{29}}}
\@writefile{toc}{\beamer@subsectionintoc {6}{1}{With New User Function}{30}{0}{6}}
\@writefile{nav}{\headcommand {\beamer@subsectionentry {0}{6}{1}{30}{With New User Function}}\headcommand {\beamer@subsectionpages {29}{29}}}
\@writefile{nav}{\headcommand {\slideentry {6}{1}{1}{30/30}{With New User Function}{0}}}
\@writefile{nav}{\headcommand {\beamer@framepages {30}{30}}}
\@writefile{nav}{\headcommand {\slideentry {6}{1}{2}{31/31}{With New User Function}{0}}}
\@writefile{nav}{\headcommand {\beamer@framepages {31}{31}}}
\@writefile{toc}{\beamer@subsectionintoc {6}{2}{Flink Issues}{32}{0}{6}}
\@writefile{nav}{\headcommand {\beamer@subsectionentry {0}{6}{2}{32}{Flink Issues}}\headcommand {\beamer@subsectionpages {30}{31}}}
\@writefile{nav}{\headcommand {\slideentry {6}{2}{1}{32/32}{Flink Issues}{0}}}
\@writefile{nav}{\headcommand {\beamer@framepages {32}{32}}}
\@writefile{toc}{\beamer@sectionintoc {7}{Conclusion}{33}{0}{7}}
\@writefile{nav}{\headcommand {\sectionentry {7}{Conclusion}{33}{Conclusion}{0}}}
\@writefile{nav}{\headcommand {\beamer@sectionpages {29}{32}}}
\@writefile{nav}{\headcommand {\beamer@subsectionpages {32}{32}}}
\@writefile{nav}{\headcommand {\slideentry {7}{0}{1}{33/33}{}{0}}}
\@writefile{nav}{\headcommand {\beamer@framepages {33}{33}}}
\@writefile{nav}{\headcommand {\slideentry {7}{0}{2}{34/34}{}{0}}}
\@writefile{nav}{\headcommand {\beamer@framepages {34}{34}}}
\bibcite{p1}{\hyperlink {beamerbibp1}{Dragland, 2013}}
\@writefile{nav}{\headcommand {\slideentry {7}{0}{3}{35/35}{}{0}}}
\@writefile{nav}{\headcommand {\beamer@framepages {35}{35}}}
\@writefile{nav}{\headcommand {\beamer@partpages {1}{35}}}
\@writefile{nav}{\headcommand {\beamer@subsectionpages {33}{35}}}
\@writefile{nav}{\headcommand {\beamer@sectionpages {33}{35}}}
\@writefile{nav}{\headcommand {\beamer@documentpages {35}}}
\@writefile{nav}{\headcommand {\def \inserttotalframenumber {35}}}
